%YAML 1.1
%TAG !u! tag:unity3d.com,2011:
--- !u!1 &6639807612983031649
GameObject:
  m_ObjectHideFlags: 0
  m_CorrespondingSourceObject: {fileID: 0}
  m_PrefabInstance: {fileID: 0}
  m_PrefabAsset: {fileID: 0}
  serializedVersion: 6
  m_Component:
  - component: {fileID: 6639807612983031651}
  - component: {fileID: 6639807612983031648}
  m_Layer: 0
  m_Name: GridGenerator
  m_TagString: Untagged
  m_Icon: {fileID: 0}
  m_NavMeshLayer: 0
  m_StaticEditorFlags: 0
  m_IsActive: 1
--- !u!4 &6639807612983031651
Transform:
  m_ObjectHideFlags: 0
  m_CorrespondingSourceObject: {fileID: 0}
  m_PrefabInstance: {fileID: 0}
  m_PrefabAsset: {fileID: 0}
  m_GameObject: {fileID: 6639807612983031649}
  m_LocalRotation: {x: 0, y: 0, z: 0, w: 1}
  m_LocalPosition: {x: 0, y: 0, z: 0}
  m_LocalScale: {x: 1, y: 1, z: 1}
  m_Children: []
  m_Father: {fileID: 0}
  m_RootOrder: 0
  m_LocalEulerAnglesHint: {x: 0, y: 0, z: 0}
--- !u!114 &6639807612983031648
MonoBehaviour:
  m_ObjectHideFlags: 0
  m_CorrespondingSourceObject: {fileID: 0}
  m_PrefabInstance: {fileID: 0}
  m_PrefabAsset: {fileID: 0}
  m_GameObject: {fileID: 6639807612983031649}
  m_Enabled: 1
  m_EditorHideFlags: 0
  m_Script: {fileID: 11500000, guid: acce8858a7f8a564eb1071a9454b3f60, type: 3}
  m_Name: 
  m_EditorClassIdentifier: 
  findDistance: 0
  rows: 20
  columns: 20
  scale: 1
  gridPrefab: {fileID: 5190056210143624653, guid: aa4480dde212922419448288b1c7e54c,
    type: 3}
  leftBottomLocation: {x: 0, y: 0, z: 0}
  startX: 0
  startY: 0
  endX: 2
  endY: 2
  path: []
